National mapping for small areas: visualizing 85,000+ Census tracts with mapgl – WALKER DATA
…
us_income

Simple feature collection with 85381 features and 5 fields (with 336 geometries empty)
Geometry type: MULTIPOLYGON
Dimension:     XY
Bounding box:  xmin: -179.1467 ymin: 17.88328 xmax: 179.7785 ymax: 71.38782
Geodetic CRS:  NAD83
# A tibble: 85,381 × 6
   GEOID       NAME            variable estimate   moe                  geometry
   <chr>       <chr>           <chr>       <dbl> <dbl>        <MULTIPOLYGON [°]>
 1 01089003100 Census Tract 3… B19013_…    89297 16748 (((-86.59811 34.74094, -…
 2 01089000501 Census Tract 5… B19013_…    46643 13010 (((-86.65703 34.77881, -…
 3 01089011021 Census Tract 1… B19013_…    82528 38647 (((-86.78678 34.67045, -…
 4 01095031200 Census Tract 3… B19013_…    55106  9618 (((-86.17402 34.23036, -…
 5 01073012401 Census Tract 1… B19013_…    71213 11788 (((-86.90739 33.57447, -…
 6 01073003400 Census Tract 3… B19013_…    32125 20693 (((-86.91104 33.50274, -…
 7 01073003001 Census Tract 3… B19013_…    56917 26119 (((-86.87246 33.51363, -…
 8 01073010402 Census Tract 1… B19013_…    28684 26530 (((-86.99094 33.37425, -…
 9 01073005101 Census Tract 5… B19013_…    30222  6679 (((-86.83959 33.49663, -…
10 01073010603 Census Tract 1… B19013_…    38750  7625 (((-86.9295 33.47472, -8…
# ℹ 85,371 more rows
…
